[
    {
        "name": "Різдвяна прикраса Гноми",
        "price": "726 ₴",
        "url": "https://xcdn.next.co.uk/Common/Items/Default/Default/ItemImages/SearchAlt/224x336/D73334.jpg",
        "article": "D73-334",
        "color": "Різнокольоровий",
        "desc": "Додайте трохи веселощів у  кімнату цього Різдва з нашим прекрасним набором наклейок, що складається з 18 предметів. Прості у використанні, ці наклейки також підходять для використання на холодильниках і вікнах."
    },

    {
        "name": "Упаковка з 50 прикрас",
        "price": "454 ₴",
        "url": "https://xcdn.next.co.uk/Common/Items/Default/Default/ItemImages/SearchAlt/224x336/D17648.jpg",
        "article": "D17-648",
        "color": "Зелений",
        "desc": "Додайте трохи веселощів у  кімнату цього Різдва з нашим прекрасним набором наклейок, що складається з 18 предметів. Прості у використанні, ці наклейки також підходять для використання на холодильниках і вікнах."
    },
    {
        "name": "Набір із 16 шишок",
        "price": "212 ₴",
        "url": "https://xcdn.next.co.uk/Common/Items/Default/Default/ItemImages/SearchAlt/224x336/D73653.jpg",
        "article": "D73-653",
        "color": "Різнокольоровий",
        "desc": "Додайте трохи веселощів у  кімнату цього Різдва з нашим прекрасним набором наклейок, що складається з 18 предметів. Прості у використанні, ці наклейки також підходять для використання на холодильниках і вікнах."
    },
    {
        "name": "Різдвяний вінок",
        "price": "907 ₴",
        "url": "https://xcdn.next.co.uk/Common/Items/Default/Default/ItemImages/SearchAlt/224x336/D74439.jpg",
        "article": "D74-439",
        "color": "Бежевий",
        "desc": "Додайте трохи веселощів у  кімнату цього Різдва з нашим прекрасним набором наклейок, що складається з 18 предметів. Прості у використанні, ці наклейки також підходять для використання на холодильниках і вікнах."
    },
    {
        "name": "Різдвяні двері - прикраса",
        "price": "242 ₴",
        "url": "https://xcdn.next.co.uk/Common/Items/Default/Default/ItemImages/SearchAlt/224x336/D73329.jpg",
        "article": "D73-329",
        "color": "Червоний",
        "desc": "Додайте трохи веселощів у  кімнату цього Різдва з нашим прекрасним набором наклейок, що складається з 18 предметів. Прості у використанні, ці наклейки також підходять для використання на холодильниках і вікнах."
    },
    {
        "name": "Різдвяні прикраси",
        "price": "454 ₴",
        "url": "https://xcdn.next.co.uk/Common/Items/Default/Default/ItemImages/SearchAlt/224x336/D17647.jpg",
        "article": "D17-647",
        "color": "Фіолетовий",
        "desc": "Додайте трохи веселощів у  кімнату цього Різдва з нашим прекрасним набором наклейок, що складається з 18 предметів. Прості у використанні, ці наклейки також підходять для використання на холодильниках і вікнах."
    },
    {
        "name": "Зірка",
        "price": "756 ₴",
        "url": "https://xcdn.next.co.uk/Common/Items/Default/Default/ItemImages/SearchAlt/224x336/D73711.jpg",
        "article": "D73-711",
        "color": "Білий",
        "desc": "Додайте трохи веселощів у  кімнату цього Різдва з нашим прекрасним набором наклейок, що складається з 18 предметів. Прості у використанні, ці наклейки також підходять для використання на холодильниках і вікнах."
    },
    {
        "name": "Різдвяні прикраси",
        "price": "454 ₴",
        "url": "https://xcdn.next.co.uk/Common/Items/Default/Default/ItemImages/SearchAlt/224x336/D73659.jpg",
        "article": "D73-659",
        "color": "Синьо-зелений",
        "desc": "Додайте трохи веселощів у  кімнату цього Різдва з нашим прекрасним набором наклейок, що складається з 18 предметів. Прості у використанні, ці наклейки також підходять для використання на холодильниках і вікнах."
    },
    {
        "name": "Чоботи",
        "price": "544 ₴",
        "url": "https://xcdn.next.co.uk/Common/Items/Default/Default/ItemImages/SearchAlt/224x336/D73328.jpg",
        "article": "D73-328",
        "color": "Різнокольоровий",
        "desc": "Додайте трохи веселощів у  кімнату цього Різдва з нашим прекрасним набором наклейок, що складається з 18 предметів. Прості у використанні, ці наклейки також підходять для використання на холодильниках і вікнах."
    },
    {
        "name": "Різдвяний гном",
        "price": "1058 ₴",
        "url": "https://xcdn.next.co.uk/Common/Items/Default/Default/ItemImages/SearchAlt/224x336/861644.jpg",
        "article": "861-644",
        "color": "Коричневий",
        "desc": "Додайте трохи веселощів у  кімнату цього Різдва з нашим прекрасним набором наклейок, що складається з 18 предметів. Прості у використанні, ці наклейки також підходять для використання на холодильниках і вікнах."
    },
    {
        "name": "Набір із 9 різдвяний прикрас",
        "price": "605 ₴",
        "url": "https://xcdn.next.co.uk/Common/Items/Default/Default/ItemImages/SearchAlt/224x336/D73689.jpg",
        "article": "D73-689",
        "color": "Зелений",
        "desc": "Додайте трохи веселощів у  кімнату цього Різдва з нашим прекрасним набором наклейок, що складається з 18 предметів. Прості у використанні, ці наклейки також підходять для використання на холодильниках і вікнах."
    },
    {
        "name": "Різдвяний вінок",
        "price": "907 ₴",
        "url": "https://xcdn.next.co.uk/Common/Items/Default/Default/ItemImages/SearchAlt/224x336/D74438.jpg",
        "article": "D74-438",
        "color": "Червоний",
        "desc": "Додайте трохи веселощів у  кімнату цього Різдва з нашим прекрасним набором наклейок, що складається з 18 предметів. Прості у використанні, ці наклейки також підходять для використання на холодильниках і вікнах."
    }
]
